<?xml version="1.0" encoding="UTF-8" standalone="no"?>
<!-- Created with Inkscape (http://www.inkscape.org/) -->

<svg
   xmlns:dc="http://purl.org/dc/elements/1.1/"
   xmlns:cc="http://creativecommons.org/ns#"
   xmlns:rdf="http://www.w3.org/1999/02/22-rdf-syntax-ns#"
   xmlns:svg="http://www.w3.org/2000/svg"
   xmlns="http://www.w3.org/2000/svg"
   xmlns:sodipodi="http://sodipodi.sourceforge.net/DTD/sodipodi-0.dtd"
   xmlns:inkscape="http://www.inkscape.org/namespaces/inkscape"
   width="772"
   height="131.73363"
   viewBox="0 0 772 131.73363"
   id="svg4162"
   version="1.1"
   inkscape:version="0.91 r13725"
   sodipodi:docname="expo-logo-full.svg"
   inkscape:export-filename="/home/dio/workspace/ECMA_2/expo/frontend-expo/assets/icon/logo/with-slogan-2x.png"
   inkscape:export-xdpi="180.5645"
   inkscape:export-ydpi="180.5645">
  <defs
     id="defs4164" />
  <sodipodi:namedview
     id="base"
     pagecolor="#ffffff"
     bordercolor="#666666"
     borderopacity="1.0"
     inkscape:pageopacity="0.0"
     inkscape:pageshadow="2"
     inkscape:zoom="0.98994949"
     inkscape:cx="1.9745377"
     inkscape:cy="-103.34852"
     inkscape:document-units="px"
     inkscape:current-layer="layer1"
     showgrid="false"
     fit-margin-top="0"
     fit-margin-left="0"
     fit-margin-right="0"
     fit-margin-bottom="0"
     inkscape:window-width="1855"
     inkscape:window-height="1056"
     inkscape:window-x="65"
     inkscape:window-y="24"
     inkscape:window-maximized="1"
     units="px" />
  <metadata
     id="metadata4167">
    <rdf:RDF>
      <cc:Work
         rdf:about="">
        <dc:format>image/svg+xml</dc:format>
        <dc:type
           rdf:resource="http://purl.org/dc/dcmitype/StillImage" />
        <dc:title></dc:title>
      </cc:Work>
    </rdf:RDF>
  </metadata>
  <g
     inkscape:label="Layer 1"
     inkscape:groupmode="layer"
     id="layer1"
     transform="translate(-240.80245,-257.04011)">
    <g
       style="font-style:normal;font-variant:normal;font-weight:normal;font-stretch:normal;font-size:21.25px;line-height:125%;font-family:Futuris;-inkscape-font-specification:Futuris;text-align:start;letter-spacing:3.36999989px;word-spacing:0px;writing-mode:lr-tb;text-anchor:start;fill:#111431;fill-opacity:1;stroke:#111431;stroke-width:1.0046941;stroke-linecap:butt;stroke-linejoin:miter;stroke-miterlimit:4;stroke-dasharray:none;stroke-opacity:1"
       id="text4811"
       transform="matrix(3.9857374,0,0,3.9857374,-717.54931,-1160.68)">
      <path
         d="m 240.94763,372.04002 0,-15.39892 8.25,0 0,1.22998 -6.75146,0 0,4.93066 6.50976,0 0,1.22998 -6.50976,0 0,6.77832 6.75146,0 0,1.22998 -8.25,0 z"
         style="font-style:normal;font-variant:normal;font-weight:normal;font-stretch:normal;font-size:22px;font-family:Futuris;-inkscape-font-specification:Futuris;letter-spacing:3.36999989px;fill:#111431;fill-opacity:1;stroke:#111431;stroke-width:1.0046941;stroke-miterlimit:4;stroke-dasharray:none;stroke-opacity:1"
         id="path4792"
         inkscape:connector-curvature="0" />
      <path
         d="m 259.35669,365.35301 -3.71679,6.68701 -1.67041,0 4.61914,-7.85254 -4.27002,-7.54638 1.67578,0 3.3623,6.28955 3.38916,-6.28955 1.67041,0 -4.28613,7.54638 4.61914,7.85254 -1.64892,0 -3.74366,-6.68701 z"
         style="font-style:normal;font-variant:normal;font-weight:normal;font-stretch:normal;font-size:22px;font-family:Futuris;-inkscape-font-specification:Futuris;letter-spacing:3.36999989px;fill:#111431;fill-opacity:1;stroke:#111431;stroke-width:1.0046941;stroke-miterlimit:4;stroke-dasharray:none;stroke-opacity:1"
         id="path4794"
         inkscape:connector-curvature="0" />
      <path
         d="m 270.20326,372.04002 0,-15.39892 4.27002,0 q 1.74023,0 3.17968,0.78418 1.43946,0.78418 1.43946,3.2871 0,2.52979 -1.44483,3.3086 -1.43945,0.77881 -3.17431,0.77881 l -2.77149,0 0,7.24023 -1.49853,0 z m 1.49853,-14.16894 0,5.69873 2.70703,0 q 3.14746,0 3.14746,-2.85743 0,-1.74023 -0.98828,-2.28808 -0.98291,-0.55322 -2.15918,-0.55322 l -2.70703,0 z"
         style="font-style:normal;font-variant:normal;font-weight:normal;font-stretch:normal;font-size:22px;font-family:Futuris;-inkscape-font-specification:Futuris;letter-spacing:3.36999989px;fill:#111431;fill-opacity:1;stroke:#111431;stroke-width:1.0046941;stroke-miterlimit:4;stroke-dasharray:none;stroke-opacity:1"
         id="path4796"
         inkscape:connector-curvature="0" />
      <path
         d="m 284.72902,364.33787 q 0,-1.64355 0.58008,-3.12597 0.58545,-1.48243 1.68115,-2.61035 1.10107,-1.13331 2.64258,-1.76709 1.54687,-0.63379 3.41601,-0.63379 1.85303,0 3.38916,0.63379 1.53614,0.63378 2.64795,1.77246 1.11182,1.1333 1.6919,2.61035 0.58545,1.47168 0.58545,3.1206 0,1.64356 -0.58545,3.12061 -0.58545,1.47705 -1.69727,2.61572 -1.10644,1.1333 -2.65332,1.77246 -1.5415,0.63379 -3.37842,0.63379 -1.8584,0 -3.41064,-0.63379 -1.54688,-0.63916 -2.64258,-1.76709 -1.0957,-1.12793 -1.68115,-2.61572 -0.58545,-1.48779 -0.58545,-3.12598 z m 1.58447,0 q 0,1.36963 0.46729,2.61035 0.46728,1.23536 1.36425,2.21827 0.89698,0.97754 2.14307,1.53076 1.25147,0.55322 2.76074,0.55322 1.50928,0 2.76075,-0.54785 1.25683,-0.55322 2.14306,-1.52002 0.88623,-0.97217 1.35352,-2.21826 0.47265,-1.25147 0.47265,-2.62647 0,-1.38037 -0.47265,-2.62646 -0.46729,-1.25147 -1.35352,-2.21289 -0.88086,-0.9668 -2.14306,-1.51465 -1.25684,-0.55322 -2.76075,-0.55322 -1.50927,0 -2.76611,0.55859 -1.25146,0.55322 -2.14307,1.52539 -0.88623,0.9668 -1.35888,2.21289 -0.46729,1.24072 -0.46729,2.61035 z"
         style="font-style:normal;font-variant:normal;font-weight:normal;font-stretch:normal;font-size:22px;font-family:Futuris;-inkscape-font-specification:Futuris;letter-spacing:3.36999989px;fill:#111431;fill-opacity:1;stroke:#111431;stroke-width:1.0046941;stroke-miterlimit:4;stroke-dasharray:none;stroke-opacity:1"
         id="path4798"
         inkscape:connector-curvature="0" />
      <path
         d="m 310.30312,372.04002 0,-14.16894 -4.11426,0 0,-1.22998 9.72168,0 0,1.22998 -4.10889,0 0,14.16894 -1.49853,0 z"
         style="font-style:normal;font-variant:normal;font-weight:normal;font-stretch:normal;font-size:22px;font-family:Futuris;-inkscape-font-specification:Futuris;letter-spacing:3.36999989px;fill:#111431;fill-opacity:1;stroke:#111431;stroke-width:1.0046941;stroke-miterlimit:4;stroke-dasharray:none;stroke-opacity:1"
         id="path4800"
         inkscape:connector-curvature="0" />
      <path
         d="m 321.47732,372.04002 0,-15.39892 8.25,0 0,1.22998 -6.75147,0 0,4.93066 6.50977,0 0,1.22998 -6.50977,0 0,6.77832 6.75147,0 0,1.22998 -8.25,0 z"
         style="font-style:normal;font-variant:normal;font-weight:normal;font-stretch:normal;font-size:22px;font-family:Futuris;-inkscape-font-specification:Futuris;letter-spacing:3.36999989px;fill:#111431;fill-opacity:1;stroke:#111431;stroke-width:1.0046941;stroke-miterlimit:4;stroke-dasharray:none;stroke-opacity:1"
         id="path4802"
         inkscape:connector-curvature="0" />
      <path
         d="m 344.09195,358.53172 -1.19238,0.70361 q -0.47266,-1.11181 -1.28907,-1.45556 -0.8164,-0.34912 -1.48242,-0.34912 -1.375,0 -2.0625,0.70898 -0.6875,0.70899 -0.6875,1.64893 0,0.84326 0.49951,1.43945 0.50489,0.59619 1.11182,0.93457 0.61231,0.33838 1.89063,0.92383 1.27832,0.60156 2.08935,1.1333 0.81641,0.52637 1.36426,1.39648 0.54785,0.87012 0.54785,2.15381 0,1.19776 -0.58008,2.28272 -0.58008,1.07959 -1.71338,1.75634 -1.12793,0.67139 -2.65869,0.67139 -2.08398,0 -3.25488,-1.07959 -1.1709,-1.08496 -1.71338,-2.37402 l 1.40723,-0.70362 q 0.38134,1.12793 1.28906,2.03028 0.90771,0.89697 2.40625,0.89697 0.8916,0 1.62744,-0.4082 0.73584,-0.41358 1.1709,-1.18164 0.43506,-0.77344 0.43506,-1.79932 0,-0.69287 -0.21485,-1.19238 -0.20947,-0.50488 -0.62304,-0.8916 -0.41358,-0.39209 -1.01514,-0.73584 -0.60156,-0.34375 -1.60059,-0.81104 -1.96582,-0.9292 -2.98632,-1.89599 -1.01514,-0.97217 -1.01514,-2.50293 0,-0.75196 0.33838,-1.57373 0.33838,-0.82178 1.27832,-1.43946 0.94531,-0.61767 2.60498,-0.61767 2.9541,0 4.02832,2.33105 z"
         style="font-style:normal;font-variant:normal;font-weight:normal;font-stretch:normal;font-size:22px;font-family:Futuris;-inkscape-font-specification:Futuris;letter-spacing:3.36999989px;fill:#111431;fill-opacity:1;stroke:#111431;stroke-width:1.0046941;stroke-miterlimit:4;stroke-dasharray:none;stroke-opacity:1"
         id="path4804"
         inkscape:connector-curvature="0" />
      <path
         d="m 353.54202,372.04002 0,-14.16894 -4.11426,0 0,-1.22998 9.72168,0 0,1.22998 -4.10888,0 0,14.16894 -1.49854,0 z"
         style="font-style:normal;font-variant:normal;font-weight:normal;font-stretch:normal;font-size:22px;font-family:Futuris;-inkscape-font-specification:Futuris;letter-spacing:3.36999989px;fill:#111431;fill-opacity:1;stroke:#111431;stroke-width:1.0046941;stroke-miterlimit:4;stroke-dasharray:none;stroke-opacity:1"
         id="path4806"
         inkscape:connector-curvature="0" />
      <path
         d="m 364.71622,372.04002 0,-15.39892 3.82959,0 c 1.86556,0 3.60975,0.36702 4.87375,1.10107 1.26758,0.73405 2.20215,1.68831 2.80371,2.86279 0.60515,1.1709 0.90772,2.4152 0.90772,3.73291 0,1.34994 -0.30078,2.61036 -0.90235,3.78125 -0.60156,1.1709 -1.53613,2.118 -2.80371,2.84131 -1.26399,0.71973 -3.00997,1.07959 -4.87912,1.07959 z m 1.49854,-1.22998 2.17529,0 c 1.6722,0 3.20871,-0.30794 4.2507,-0.92383 1.04557,-0.61947 1.79037,-1.41797 2.23438,-2.3955 0.44759,-0.97754 0.67138,-2.02849 0.67138,-3.15284 0,-1.04915 -0.17904,-1.97835 -0.53711,-2.78759 -0.35449,-0.81283 -0.854,-1.49138 -1.49853,-2.03565 -0.64095,-0.54785 -1.55978,-0.95785 -2.39767,-1.22998 -0.83789,-0.27571 -1.74561,-0.41357 -2.72315,-0.41357 l -2.17529,0 z"
         style="font-style:normal;font-variant:normal;font-weight:normal;font-stretch:normal;font-size:22px;font-family:Futuris;-inkscape-font-specification:Futuris;letter-spacing:3.36999989px;fill:#111431;fill-opacity:1;stroke:#111431;stroke-width:1.0046941;stroke-miterlimit:4;stroke-dasharray:none;stroke-opacity:1"
         id="path4808"
         inkscape:connector-curvature="0"
         sodipodi:nodetypes="ccsccsscsccsccscccscc" />
      <path
         d="m 383.46904,372.04002 0,-15.39892 4.11426,0 q 1.58447,0 2.98095,0.88623 1.40186,0.88623 1.40186,3.27099 0,0.97217 -0.4082,1.8584 -0.40283,0.88086 -1.4878,1.52539 -1.08496,0.63916 -2.94873,0.75195 l 5.45703,7.10596 -1.75634,0 -5.28516,-7.08447 -0.56933,0 0,7.08447 -1.49854,0 z m 1.49854,-8.31445 1.5415,0 q 3.91553,0 3.91553,-2.92725 0,-1.78857 -0.99903,-2.35791 -0.99365,-0.56933 -2.56738,-0.56933 l -1.89062,0 0,5.85449 z"
         style="font-style:normal;font-variant:normal;font-weight:normal;font-stretch:normal;font-size:22px;font-family:Futuris;-inkscape-font-specification:Futuris;letter-spacing:3.36999989px;fill:#111431;fill-opacity:1;stroke:#111431;stroke-width:1.0046941;stroke-miterlimit:4;stroke-dasharray:none;stroke-opacity:1"
         id="path4810"
         inkscape:connector-curvature="0" />
      <path
         d="m 398.18279,372.04002 0,-15.39892 1.49853,0 0,15.39892 -1.49853,0 z"
         style="font-style:normal;font-variant:normal;font-weight:normal;font-stretch:normal;font-size:22px;font-family:Futuris;-inkscape-font-specification:Futuris;letter-spacing:3.36999989px;fill:#111431;fill-opacity:1;stroke:#111431;stroke-width:1.0046941;stroke-miterlimit:4;stroke-dasharray:none;stroke-opacity:1"
         id="path4812"
         inkscape:connector-curvature="0" />
      <path
         d="m 411.23686,372.6577 -6.00488,-16.0166 1.62744,0 4.37744,12.16552 4.37744,-12.16552 1.62744,0 -6.00488,16.0166 z"
         style="font-style:normal;font-variant:normal;font-weight:normal;font-stretch:normal;font-size:22px;font-family:Futuris;-inkscape-font-specification:Futuris;letter-spacing:3.36999989px;fill:#111431;fill-opacity:1;stroke:#111431;stroke-width:1.0046941;stroke-miterlimit:4;stroke-dasharray:none;stroke-opacity:1"
         id="path4814"
         inkscape:connector-curvature="0" />
      <path
         d="m 422.79779,372.04002 0,-15.39892 8.25,0 0,1.22998 -6.75146,0 0,4.93066 6.50976,0 0,1.22998 -6.50976,0 0,6.77832 6.75146,0 0,1.22998 -8.25,0 z"
         style="font-style:normal;font-variant:normal;font-weight:normal;font-stretch:normal;font-size:22px;font-family:Futuris;-inkscape-font-specification:Futuris;letter-spacing:3.36999989px;fill:#111431;fill-opacity:1;stroke:#111431;stroke-width:1.0046941;stroke-miterlimit:4;stroke-dasharray:none;stroke-opacity:1"
         id="path4816"
         inkscape:connector-curvature="0" />
    </g>
    <g
       style="font-style:normal;font-variant:normal;font-weight:600;font-stretch:normal;font-size:9.75px;line-height:125%;font-family:'Open Sans';-inkscape-font-specification:'Open Sans, Semi-Bold';text-align:start;letter-spacing:0.44px;word-spacing:0px;writing-mode:lr-tb;text-anchor:start;fill:#4a4a4a;fill-opacity:1;stroke:none;stroke-width:1px;stroke-linecap:butt;stroke-linejoin:miter;stroke-opacity:1"
       id="text4815"
       transform="matrix(4.004447,0,0,4.004447,-723.47815,-1168.0501)">
      <path
         d="m 246.26395,384.84613 0.01,0.0286 q 0.019,0.97596 -0.68555,1.63294 -0.70459,0.65698 -1.86145,0.65698 -1.1759,0 -1.91858,-0.83313 -0.73791,-0.83313 -0.73791,-2.11377 l 0,-1.23303 q 0,-1.28064 0.73791,-2.11377 0.74268,-0.83789 1.91858,-0.83789 1.1759,0 1.87097,0.62842 0.69507,0.62366 0.67603,1.65674 l -0.01,0.0286 -0.89978,0 q 0,-0.72839 -0.42847,-1.1521 -0.42847,-0.4237 -1.20923,-0.4237 -0.78552,0 -1.25207,0.63317 -0.46656,0.63318 -0.46656,1.57105 l 0,1.24255 q 0,0.94739 0.46656,1.58057 0.46655,0.63318 1.25207,0.63318 0.78076,0 1.20923,-0.41895 0.42847,-0.4237 0.42847,-1.16638 l 0.89978,0 z"
         style="font-style:normal;font-variant:normal;font-weight:normal;font-stretch:normal;font-size:9.75px;font-family:Roboto;-inkscape-font-specification:Roboto;letter-spacing:0.44px;fill:#4a4a4a;fill-opacity:1"
         id="path4819"
         inkscape:connector-curvature="0" />
      <path
         d="m 252.08835,383.85114 -3.17542,0 0,2.48034 3.66101,0 0,0.73316 -4.59888,0 0,-6.93164 4.54651,0 0,0.73791 -3.60864,0 0,2.24231 3.17542,0 0,0.73792 z"
         style="font-style:normal;font-variant:normal;font-weight:normal;font-stretch:normal;font-size:9.75px;font-family:Roboto;-inkscape-font-specification:Roboto;letter-spacing:0.44px;fill:#4a4a4a;fill-opacity:1"
         id="path4821"
         inkscape:connector-curvature="0" />
      <path
         d="m 255.04678,384.28436 0,2.78028 -0.93787,0 0,-6.93164 2.65174,0 q 1.10925,0 1.72338,0.57128 0.61414,0.57129 0.61414,1.5044 0,0.94739 -0.61414,1.51392 -0.61413,0.56176 -1.72338,0.56176 l -1.71387,0 z m 0,-0.73315 1.71387,0 q 0.70459,0 1.05212,-0.3761 0.34753,-0.38086 0.34753,-0.95691 0,-0.57605 -0.35229,-0.96167 -0.34754,-0.38562 -1.04736,-0.38562 l -1.71387,0 0,2.6803 z"
         style="font-style:normal;font-variant:normal;font-weight:normal;font-stretch:normal;font-size:9.75px;font-family:Roboto;-inkscape-font-specification:Roboto;letter-spacing:0.44px;fill:#4a4a4a;fill-opacity:1"
         id="path4823"
         inkscape:connector-curvature="0" />
      <path
         d="m 260.79501,387.06464 0,-6.93164 2.26135,0 q 1.08545,0 1.69958,0.47131 0.61414,0.46655 0.61414,1.40442 0,0.46179 -0.29517,0.82837 -0.29516,0.36181 -0.776,0.53796 0.62842,0.1333 0.98548,0.61414 0.36181,0.48083 0.36181,1.11877 0,0.95215 -0.61889,1.45679 -0.61414,0.49988 -1.67102,0.49988 l -2.56128,0 z m 0.93786,-3.25159 0,2.51843 1.62342,0 q 0.63793,0 0.99499,-0.31421 0.35706,-0.31897 0.35706,-0.89978 0,-0.60937 -0.29993,-0.95691 -0.29517,-0.34753 -0.91406,-0.34753 l -1.76148,0 z m 0,-0.73315 1.51868,0 q 0.52368,0 0.85217,-0.28565 0.32849,-0.2904 0.32849,-0.80456 0,-0.56177 -0.35705,-0.8379 -0.3523,-0.28088 -1.0188,-0.28088 l -1.32349,0 0,2.20899 z"
         style="font-style:normal;font-variant:normal;font-weight:normal;font-stretch:normal;font-size:9.75px;font-family:Roboto;-inkscape-font-specification:Roboto;letter-spacing:0.44px;fill:#4a4a4a;fill-opacity:1"
         id="path4825"
         inkscape:connector-curvature="0" />
      <path
         d="m 271.76577,380.133 0.93786,0 0,6.93164 -0.93786,0 0,-5.28443 -0.0286,-0.01 -3.33728,5.29395 -0.93786,0 0,-6.93164 0.93786,0 0,5.27966 0.0286,0.01 3.33728,-5.28918 z"
         style="font-style:normal;font-variant:normal;font-weight:normal;font-stretch:normal;font-size:9.75px;font-family:Roboto;-inkscape-font-specification:Roboto;letter-spacing:0.44px;fill:#4a4a4a;fill-opacity:1"
         id="path4827"
         inkscape:connector-curvature="0" />
      <path
         d="m 279.75154,384.84613 0.01,0.0286 q 0.019,0.97596 -0.68555,1.63294 -0.70459,0.65698 -1.86145,0.65698 -1.1759,0 -1.91858,-0.83313 -0.73791,-0.83313 -0.73791,-2.11377 l 0,-1.23303 q 0,-1.28064 0.73791,-2.11377 0.74268,-0.83789 1.91858,-0.83789 1.1759,0 1.87097,0.62842 0.69507,0.62366 0.67603,1.65674 l -0.01,0.0286 -0.89978,0 q 0,-0.72839 -0.42846,-1.1521 -0.42847,-0.4237 -1.20923,-0.4237 -0.78552,0 -1.25208,0.63317 -0.46655,0.63318 -0.46655,1.57105 l 0,1.24255 q 0,0.94739 0.46655,1.58057 0.46656,0.63318 1.25208,0.63318 0.78076,0 1.20923,-0.41895 0.42846,-0.4237 0.42846,-1.16638 l 0.89978,0 z"
         style="font-style:normal;font-variant:normal;font-weight:normal;font-stretch:normal;font-size:9.75px;font-family:Roboto;-inkscape-font-specification:Roboto;letter-spacing:0.44px;fill:#4a4a4a;fill-opacity:1"
         id="path4829"
         inkscape:connector-curvature="0" />
      <path
         d="m 289.61983,386.33148 0.95215,0 -0.0952,2.43274 -0.84265,0 0,-1.69958 -5.00354,0 0,1.7091 -0.79504,0 -0.14283,-2.44226 0.5951,0 q 0.36657,-0.41418 0.67126,-1.21399 0.30469,-0.80456 0.33325,-2.18042 l 0.15711,-2.80407 4.17041,0 0,6.19848 z m -3.38013,-3.39441 q -0.0429,1.13306 -0.28564,1.99475 -0.2428,0.8617 -0.62366,1.39966 l 3.35156,0 0,-5.46057 -2.33276,0 -0.1095,2.06616 z"
         style="font-style:normal;font-variant:normal;font-weight:normal;font-stretch:normal;font-size:9.75px;font-family:Roboto;-inkscape-font-specification:Roboto;letter-spacing:0.44px;fill:#4a4a4a;fill-opacity:1"
         id="path4831"
         inkscape:connector-curvature="0" />
      <path
         d="m 297.41993,380.133 0,6.93164 -0.93786,0 0,-6.19373 -2.50415,0 -0.005,2.52795 q 0,1.9043 -0.49036,2.78504 -0.49036,0.88074 -1.62817,0.88074 l -0.25232,0 0,-0.73316 0.19519,0 q 0.65698,0 0.94738,-0.67602 0.29041,-0.68079 0.29517,-2.2566 l 0.005,-3.26586 4.37512,0 z"
         style="font-style:normal;font-variant:normal;font-weight:normal;font-stretch:normal;font-size:9.75px;font-family:Roboto;-inkscape-font-specification:Roboto;letter-spacing:0.44px;fill:#4a4a4a;fill-opacity:1"
         id="path4833"
         inkscape:connector-curvature="0" />
      <path
         d="m 300.18793,387.06464 -0.99499,0 1.62341,-2.96119 q -0.67126,-0.25708 -1.02356,-0.73315 -0.34753,-0.47607 -0.34753,-1.1521 0,-0.99023 0.65222,-1.53772 0.65698,-0.54748 1.80432,-0.54748 l 2.21851,0 0,6.93164 -0.93787,0 0,-2.70887 -1.552,0 -1.44251,2.70887 z m 2.99451,-6.19373 -1.28064,0 q -0.74267,0 -1.13305,0.35706 -0.38562,0.35705 -0.38562,0.98071 0,0.62366 0.39038,1.01404 0.39038,0.39038 1.11877,0.39038 l 1.29016,0 0,-2.74219 z"
         style="font-style:normal;font-variant:normal;font-weight:normal;font-stretch:normal;font-size:9.75px;font-family:Roboto;-inkscape-font-specification:Roboto;letter-spacing:0.44px;fill:#4a4a4a;fill-opacity:1"
         id="path4835"
         inkscape:connector-curvature="0" />
      <path
         d="m 313.8172,380.87091 -2.22803,0 0,6.19373 -0.93786,0 0,-6.19373 -2.22327,0 0,-0.73791 5.38916,0 0,0.73791 z"
         style="font-style:normal;font-variant:normal;font-weight:normal;font-stretch:normal;font-size:9.75px;font-family:Roboto;-inkscape-font-specification:Roboto;letter-spacing:0.44px;fill:#4a4a4a;fill-opacity:1"
         id="path4837"
         inkscape:connector-curvature="0" />
      <path
         d="m 319.38928,383.85114 -3.17541,0 0,2.48034 3.66101,0 0,0.73316 -4.59888,0 0,-6.93164 4.54651,0 0,0.73791 -3.60864,0 0,2.24231 3.17541,0 0,0.73792 z"
         style="font-style:normal;font-variant:normal;font-weight:normal;font-stretch:normal;font-size:9.75px;font-family:Roboto;-inkscape-font-specification:Roboto;letter-spacing:0.44px;fill:#4a4a4a;fill-opacity:1"
         id="path4839"
         inkscape:connector-curvature="0" />
      <path
         d="m 326.30865,384.84613 0.01,0.0286 q 0.019,0.97596 -0.68555,1.63294 -0.70459,0.65698 -1.86145,0.65698 -1.1759,0 -1.91858,-0.83313 -0.73791,-0.83313 -0.73791,-2.11377 l 0,-1.23303 q 0,-1.28064 0.73791,-2.11377 0.74268,-0.83789 1.91858,-0.83789 1.1759,0 1.87097,0.62842 0.69507,0.62366 0.67603,1.65674 l -0.01,0.0286 -0.89978,0 q 0,-0.72839 -0.42846,-1.1521 -0.42847,-0.4237 -1.20923,-0.4237 -0.78552,0 -1.25208,0.63317 -0.46655,0.63318 -0.46655,1.57105 l 0,1.24255 q 0,0.94739 0.46655,1.58057 0.46656,0.63318 1.25208,0.63318 0.78076,0 1.20923,-0.41895 0.42846,-0.4237 0.42846,-1.16638 l 0.89978,0 z"
         style="font-style:normal;font-variant:normal;font-weight:normal;font-stretch:normal;font-size:9.75px;font-family:Roboto;-inkscape-font-specification:Roboto;letter-spacing:0.44px;fill:#4a4a4a;fill-opacity:1"
         id="path4841"
         inkscape:connector-curvature="0" />
      <path
         d="m 332.58057,380.87091 -2.22803,0 0,6.19373 -0.93787,0 0,-6.19373 -2.22326,0 0,-0.73791 5.38916,0 0,0.73791 z"
         style="font-style:normal;font-variant:normal;font-weight:normal;font-stretch:normal;font-size:9.75px;font-family:Roboto;-inkscape-font-specification:Roboto;letter-spacing:0.44px;fill:#4a4a4a;fill-opacity:1"
         id="path4843"
         inkscape:connector-curvature="0" />
      <path
         d="m 334.38689,384.50336 -2.33276,0 0,-0.73316 2.33276,0 0,0.73316 z"
         style="font-style:normal;font-variant:normal;font-weight:normal;font-stretch:normal;font-size:9.75px;font-family:Roboto;-inkscape-font-specification:Roboto;letter-spacing:0.44px;fill:#4a4a4a;fill-opacity:1"
         id="path4845"
         inkscape:connector-curvature="0" />
      <path
         d="m 341.14916,386.33148 0.95215,0 -0.0952,2.43274 -0.84266,0 0,-1.69958 -5.00354,0 0,1.7091 -0.79504,0 -0.14282,-2.44226 0.59509,0 q 0.36658,-0.41418 0.67127,-1.21399 0.30468,-0.80456 0.33325,-2.18042 l 0.1571,-2.80407 4.17041,0 0,6.19848 z m -3.38012,-3.39441 q -0.0429,1.13306 -0.28565,1.99475 -0.2428,0.8617 -0.62366,1.39966 l 3.35157,0 0,-5.46057 -2.33277,0 -0.10949,2.06616 z"
         style="font-style:normal;font-variant:normal;font-weight:normal;font-stretch:normal;font-size:9.75px;font-family:Roboto;-inkscape-font-specification:Roboto;letter-spacing:0.44px;fill:#4a4a4a;fill-opacity:1"
         id="path4847"
         inkscape:connector-curvature="0" />
      <path
         d="m 344.617,384.28436 0,2.78028 -0.93787,0 0,-6.93164 2.65173,0 q 1.10926,0 1.72339,0.57128 0.61414,0.57129 0.61414,1.5044 0,0.94739 -0.61414,1.51392 -0.61413,0.56176 -1.72339,0.56176 l -1.71386,0 z m 0,-0.73315 1.71386,0 q 0.70459,0 1.05213,-0.3761 0.34753,-0.38086 0.34753,-0.95691 0,-0.57605 -0.35229,-0.96167 -0.34754,-0.38562 -1.04737,-0.38562 l -1.71386,0 0,2.6803 z"
         style="font-style:normal;font-variant:normal;font-weight:normal;font-stretch:normal;font-size:9.75px;font-family:Roboto;-inkscape-font-specification:Roboto;letter-spacing:0.44px;fill:#4a4a4a;fill-opacity:1"
         id="path4849"
         inkscape:connector-curvature="0" />
      <path
         d="m 353.28355,385.27936 -2.90405,0 -0.65698,1.78528 -0.95691,0 2.6803,-6.93164 0.80456,0 2.63745,6.93164 -0.9569,0 -0.64747,-1.78528 z m -2.61364,-0.78552 2.33276,0 -1.14258,-3.15638 -0.0286,0 -1.16162,3.15638 z"
         style="font-style:normal;font-variant:normal;font-weight:normal;font-stretch:normal;font-size:9.75px;font-family:Roboto;-inkscape-font-specification:Roboto;letter-spacing:0.44px;fill:#4a4a4a;fill-opacity:1"
         id="path4851"
         inkscape:connector-curvature="0" />
      <path
         d="m 360.59331,380.133 0.93786,0 0,6.93164 -0.93786,0 0,-5.28443 -0.0286,-0.01 -3.33728,5.29395 -0.93786,0 0,-6.93164 0.93786,0 0,5.27966 0.0286,0.01 3.33728,-5.28918 z m -0.27136,-1.97095 0.01,0.0286 q 0.019,0.55225 -0.36658,0.89978 -0.38562,0.34754 -1.03784,0.34754 -0.65698,0 -1.0426,-0.34754 -0.38562,-0.34753 -0.36182,-0.89978 l 0.01,-0.0286 0.71887,0 q 0,0.31421 0.16187,0.5094 0.16186,0.19519 0.51416,0.19519 0.34277,0 0.5094,-0.19519 0.16662,-0.19995 0.16662,-0.5094 l 0.71888,0 z"
         style="font-style:normal;font-variant:normal;font-weight:normal;font-stretch:normal;font-size:9.75px;font-family:Roboto;-inkscape-font-specification:Roboto;letter-spacing:0.44px;fill:#4a4a4a;fill-opacity:1"
         id="path4853"
         inkscape:connector-curvature="0" />
      <path
         d="m 363.68028,387.06464 0,-6.93164 2.26136,0 q 1.08544,0 1.69958,0.47131 0.61414,0.46655 0.61414,1.40442 0,0.46179 -0.29517,0.82837 -0.29517,0.36181 -0.776,0.53796 0.62842,0.1333 0.98547,0.61414 0.36182,0.48083 0.36182,1.11877 0,0.95215 -0.6189,1.45679 -0.61413,0.49988 -1.67102,0.49988 l -2.56128,0 z m 0.93787,-3.25159 0,2.51843 1.62341,0 q 0.63794,0 0.995,-0.31421 0.35705,-0.31897 0.35705,-0.89978 0,-0.60937 -0.29992,-0.95691 -0.29517,-0.34753 -0.91407,-0.34753 l -1.76147,0 z m 0,-0.73315 1.51868,0 q 0.52368,0 0.85217,-0.28565 0.32849,-0.2904 0.32849,-0.80456 0,-0.56177 -0.35706,-0.8379 -0.35229,-0.28088 -1.01879,-0.28088 l -1.32349,0 0,2.20899 z"
         style="font-style:normal;font-variant:normal;font-weight:normal;font-stretch:normal;font-size:9.75px;font-family:Roboto;-inkscape-font-specification:Roboto;letter-spacing:0.44px;fill:#4a4a4a;fill-opacity:1"
         id="path4855"
         inkscape:connector-curvature="0" />
      <path
         d="m 374.10356,385.27936 -2.90405,0 -0.65698,1.78528 -0.95691,0 2.68029,-6.93164 0.80457,0 2.63745,6.93164 -0.95691,0 -0.64746,-1.78528 z m -2.61365,-0.78552 2.33277,0 -1.14258,-3.15638 -0.0286,0 -1.16163,3.15638 z"
         style="font-style:normal;font-variant:normal;font-weight:normal;font-stretch:normal;font-size:9.75px;font-family:Roboto;-inkscape-font-specification:Roboto;letter-spacing:0.44px;fill:#4a4a4a;fill-opacity:1"
         id="path4857"
         inkscape:connector-curvature="0" />
      <path
         d="m 379.96805,387.06464 0,-6.93164 2.26135,0 q 1.08545,0 1.69959,0.47131 0.61413,0.46655 0.61413,1.40442 0,0.46179 -0.29516,0.82837 -0.29517,0.36181 -0.77601,0.53796 0.62842,0.1333 0.98548,0.61414 0.36181,0.48083 0.36181,1.11877 0,0.95215 -0.61889,1.45679 -0.61414,0.49988 -1.67102,0.49988 l -2.56128,0 z m 0.93786,-3.25159 0,2.51843 1.62342,0 q 0.63794,0 0.99499,-0.31421 0.35706,-0.31897 0.35706,-0.89978 0,-0.60937 -0.29993,-0.95691 -0.29516,-0.34753 -0.91406,-0.34753 l -1.76148,0 z m 0,-0.73315 1.51868,0 q 0.52368,0 0.85217,-0.28565 0.3285,-0.2904 0.3285,-0.80456 0,-0.56177 -0.35706,-0.8379 -0.3523,-0.28088 -1.0188,-0.28088 l -1.32349,0 0,2.20899 z"
         style="font-style:normal;font-variant:normal;font-weight:normal;font-stretch:normal;font-size:9.75px;font-family:Roboto;-inkscape-font-specification:Roboto;letter-spacing:0.44px;fill:#4a4a4a;fill-opacity:1"
         id="path4859"
         inkscape:connector-curvature="0" />
      <path
         d="m 387.57297,382.87518 1.7091,0 q 1.10926,0 1.72339,0.57129 0.6189,0.56653 0.6189,1.5044 0,0.94262 -0.6189,1.52819 -0.61889,0.58558 -1.72339,0.58558 l -2.64697,0 0,-6.93164 0.93787,0 0,2.74218 z m 0,0.73792 0,2.71838 1.7091,0 q 0.69983,0 1.05213,-0.3999 0.35229,-0.40466 0.35229,-0.99023 0,-0.56653 -0.35229,-0.94739 -0.34754,-0.38086 -1.05213,-0.38086 l -1.7091,0 z m 5.83667,3.45154 -0.94263,0 0,-6.93164 0.94263,0 0,6.93164 z"
         style="font-style:normal;font-variant:normal;font-weight:normal;font-stretch:normal;font-size:9.75px;font-family:Roboto;-inkscape-font-specification:Roboto;letter-spacing:0.44px;fill:#4a4a4a;fill-opacity:1"
         id="path4861"
         inkscape:connector-curvature="0" />
      <path
         d="m 400.46707,384.84613 0.01,0.0286 q 0.019,0.97596 -0.68554,1.63294 -0.70459,0.65698 -1.86145,0.65698 -1.17591,0 -1.91858,-0.83313 -0.73792,-0.83313 -0.73792,-2.11377 l 0,-1.23303 q 0,-1.28064 0.73792,-2.11377 0.74267,-0.83789 1.91858,-0.83789 1.1759,0 1.87097,0.62842 0.69507,0.62366 0.67602,1.65674 l -0.01,0.0286 -0.89978,0 q 0,-0.72839 -0.42847,-1.1521 -0.42846,-0.4237 -1.20922,-0.4237 -0.78553,0 -1.25208,0.63317 -0.46655,0.63318 -0.46655,1.57105 l 0,1.24255 q 0,0.94739 0.46655,1.58057 0.46655,0.63318 1.25208,0.63318 0.78076,0 1.20922,-0.41895 0.42847,-0.4237 0.42847,-1.16638 l 0.89978,0 z"
         style="font-style:normal;font-variant:normal;font-weight:normal;font-stretch:normal;font-size:9.75px;font-family:Roboto;-inkscape-font-specification:Roboto;letter-spacing:0.44px;fill:#4a4a4a;fill-opacity:1"
         id="path4863"
         inkscape:connector-curvature="0" />
      <path
         d="m 406.73898,380.87091 -2.22802,0 0,6.19373 -0.93787,0 0,-6.19373 -2.22327,0 0,-0.73791 5.38916,0 0,0.73791 z"
         style="font-style:normal;font-variant:normal;font-weight:normal;font-stretch:normal;font-size:9.75px;font-family:Roboto;-inkscape-font-specification:Roboto;letter-spacing:0.44px;fill:#4a4a4a;fill-opacity:1"
         id="path4865"
         inkscape:connector-curvature="0" />
      <path
         d="m 411.43985,385.27936 -2.90405,0 -0.65699,1.78528 -0.9569,0 2.68029,-6.93164 0.80457,0 2.63745,6.93164 -0.95691,0 -0.64746,-1.78528 z m -2.61365,-0.78552 2.33277,0 -1.14258,-3.15638 -0.0286,0 -1.16162,3.15638 z"
         style="font-style:normal;font-variant:normal;font-weight:normal;font-stretch:normal;font-size:9.75px;font-family:Roboto;-inkscape-font-specification:Roboto;letter-spacing:0.44px;fill:#4a4a4a;fill-opacity:1"
         id="path4867"
         inkscape:connector-curvature="0" />
      <path
         d="m 414.44589,387.06464 0,-6.93164 2.26135,0 q 1.08545,0 1.69959,0.47131 0.61414,0.46655 0.61414,1.40442 0,0.46179 -0.29517,0.82837 -0.29517,0.36181 -0.776,0.53796 0.62842,0.1333 0.98547,0.61414 0.36182,0.48083 0.36182,1.11877 0,0.95215 -0.6189,1.45679 -0.61413,0.49988 -1.67102,0.49988 l -2.56128,0 z m 0.93787,-3.25159 0,2.51843 1.62341,0 q 0.63794,0 0.995,-0.31421 0.35705,-0.31897 0.35705,-0.89978 0,-0.60937 -0.29992,-0.95691 -0.29517,-0.34753 -0.91407,-0.34753 l -1.76147,0 z m 0,-0.73315 1.51868,0 q 0.52368,0 0.85217,-0.28565 0.32849,-0.2904 0.32849,-0.80456 0,-0.56177 -0.35706,-0.8379 -0.35229,-0.28088 -1.0188,-0.28088 l -1.32348,0 0,2.20899 z"
         style="font-style:normal;font-variant:normal;font-weight:normal;font-stretch:normal;font-size:9.75px;font-family:Roboto;-inkscape-font-specification:Roboto;letter-spacing:0.44px;fill:#4a4a4a;fill-opacity:1"
         id="path4869"
         inkscape:connector-curvature="0" />
      <path
         d="m 426.35927,384.21771 q 0,1.27112 -0.79029,2.10901 -0.78552,0.83789 -2.04235,0.83789 -1.21399,0 -1.97571,-0.83789 -0.75696,-0.83789 -0.75696,-2.10901 l 0,-1.23303 q 0,-1.26636 0.75696,-2.10901 0.76172,-0.84265 1.97571,-0.84265 1.25683,0 2.04235,0.84265 0.79029,0.83789 0.79029,2.10901 l 0,1.23303 z m -0.93787,-1.24255 q 0,-0.95215 -0.51416,-1.56152 -0.51416,-0.60938 -1.38061,-0.60938 -0.81885,0 -1.30921,0.60938 -0.48559,0.60937 -0.48559,1.56152 l 0,1.24255 q 0,0.96167 0.48559,1.57105 0.49036,0.60937 1.30921,0.60937 0.87121,0 1.38061,-0.60461 0.51416,-0.60938 0.51416,-1.57581 l 0,-1.24255 z"
         style="font-style:normal;font-variant:normal;font-weight:normal;font-stretch:normal;font-size:9.75px;font-family:Roboto;-inkscape-font-specification:Roboto;letter-spacing:0.44px;fill:#4a4a4a;fill-opacity:1"
         id="path4871"
         inkscape:connector-curvature="0" />
      <path
         d="m 429.94612,383.93683 -0.80932,0 0,3.12781 -0.93787,0 0,-6.93164 0.93787,0 0,3.06591 0.72363,0 2.48034,-3.06591 1.03785,0 0.0143,0.0238 -2.68982,3.32776 2.88501,3.55627 -0.0143,0.0238 -1.11878,0 -2.50891,-3.12781 z"
         style="font-style:normal;font-variant:normal;font-weight:normal;font-stretch:normal;font-size:9.75px;font-family:Roboto;-inkscape-font-specification:Roboto;letter-spacing:0.44px;fill:#4a4a4a;fill-opacity:1"
         id="path4873"
         inkscape:connector-curvature="0" />
    </g>
  </g>
</svg>
